<?xml version="1.0" encoding="UTF-8" standalone="no"?>
<svg
   version="1.1"
   id="Layer_1"
   x="0px"
   y="0px"
   width="72px"
   height="72px"
   viewBox="0 0 72 72"
   enable-background="new 0 0 72 72"
   xml:space="preserve"
   xmlns="http://www.w3.org/2000/svg"
   xmlns:svg="http://www.w3.org/2000/svg"><defs
   id="defs502" />
<g
   id="g497">
	<path
   fill="#D3D7CF"
   d="M17.282,65.141l51.637-2.135c0,0-0.955,3.164-2.559,3.794l-48.81,2.877   C17.551,69.677,13.092,71.577,17.282,65.141z"
   id="path475" />
	<path
   fill="#A3131C"
   d="M1.531,2.051L16.982,65.3l51.407-2.421c0,0,4.059,0.243,2.288-3.996L50.508,4.938   c0,0,0.117-3.226-5.191-3.401L2.988,0.849C2.988,0.849,1.705,1.081,1.531,2.051z"
   id="path477" />
	<path
   fill="#A3131C"
   d="M17.18,65.425c0,0-1.653,3.18-1.425,4.461c0,0-0.653,1.838-1.83-0.645L0.95,6.007   c0,0-0.979-2.507,0.963-4.565L17.18,65.425z"
   id="path479" />
	<path
   fill="#8E1319"
   d="M15.883,69.049c0,0-0.886,0.558,1.677,0.604l47.578-2.801c0,0,2.075-0.033,2.948-1.987   c0,0,1.295,1.522-1.854,2.659c0,0-1.806,0.244-3.186,0.259l-47.594,2.954C15.453,70.736,14.125,69.649,15.883,69.049z"
   id="path481" />
	<path
   fill="#8E1319"
   d="M17.284,65.128l-1.454,2.235l-0.398,0.871l-0.601,1.843l0.925-0.191l0.389-1.397l0.622-1.323l0.92-1.147   l48.577-2.313c0,0,5.209,0.318,4.863-2.548c0,0-0.61,2.187-6.072,1.603L17.284,65.128z"
   id="path483" />
	<line
   fill="none"
   stroke="#8E1319"
   stroke-width="0.3236"
   x1="2.865"
   y1="1.091"
   x2="17.638"
   y2="65.535"
   id="line485" />
	<path
   fill="#D3D7CF"
   d="M9.243,47.33c0.141-1.321,1.288-3.173,2.939-3.959l52.267-1.308l-8.313-22.676L6.926,19.733   c0,0-2.501,0.487-2.766,2.928L9.243,47.33z"
   id="path487" />
	<line
   fill="#BABDB6"
   stroke="#C0BEAA"
   stroke-width="0.3249"
   x1="7.089"
   y1="19.827"
   x2="12.516"
   y2="43.194"
   id="line489" />
	<path
   fill="#555653"
   d="M39.804,1.16l21.119,61.154c0,0,0.178,0.919-0.351,2.28c0,0-1.409,2.625-1.988,3.277   c0,0-0.416,0.202-1.276,0.23c0,0,0.482,0.354,2.42,0.712c0,0,2.015-0.245,2.233-0.854c0,0,0.956-1.319,1.709-3.437   c0,0,0.705-1.314,0.259-2.492L42.62,1.475C42.62,1.475,41.713,0.638,39.804,1.16z"
   id="path491" />
	
</g>
</svg>
